\relax 
\providecommand\hyper@newdestlabel[2]{}
\providecommand\HyperFirstAtBeginDocument{\AtBeginDocument}
\HyperFirstAtBeginDocument{\ifx\hyper@anchor\@undefined
\global\let\oldcontentsline\contentsline
\gdef\contentsline#1#2#3#4{\oldcontentsline{#1}{#2}{#3}}
\global\let\oldnewlabel\newlabel
\gdef\newlabel#1#2{\newlabelxx{#1}#2}
\gdef\newlabelxx#1#2#3#4#5#6{\oldnewlabel{#1}{{#2}{#3}}}
\AtEndDocument{\ifx\hyper@anchor\@undefined
\let\contentsline\oldcontentsline
\let\newlabel\oldnewlabel
\fi}
\fi}
\global\let\hyper@last\relax 
\gdef\HyperFirstAtBeginDocument#1{#1}
\providecommand\HyField@AuxAddToFields[1]{}
\providecommand\HyField@AuxAddToCoFields[2]{}
\@writefile{nav}{\headcommand {\slideentry {0}{0}{1}{1/1}{}{0}}}
\@writefile{nav}{\headcommand {\beamer@framepages {1}{1}}}
\newlabel{modoo1_1<1>}{{2}{2}{}{Doc-Start}{}}
\@writefile{snm}{\beamer@slide {modoo1_1<1>}{2}}
\newlabel{modoo1_1}{{2}{2}{}{Doc-Start}{}}
\@writefile{snm}{\beamer@slide {modoo1_1}{2}}
\newlabel{fig:simple}{{2}{2}{}{Doc-Start}{}}
\@writefile{snm}{\beamer@slide {fig:simple}{2}}
\@writefile{nav}{\headcommand {\slideentry {0}{0}{2}{2/2}{}{0}}}
\@writefile{nav}{\headcommand {\beamer@framepages {2}{2}}}
\newlabel{modoo1_2<1>}{{3}{3}{}{Doc-Start}{}}
\@writefile{snm}{\beamer@slide {modoo1_2<1>}{3}}
\newlabel{modoo1_2}{{3}{3}{}{Doc-Start}{}}
\@writefile{snm}{\beamer@slide {modoo1_2}{3}}
\newlabel{fig:simple}{{3}{3}{}{Doc-Start}{}}
\@writefile{snm}{\beamer@slide {fig:simple}{3}}
\@writefile{nav}{\headcommand {\slideentry {0}{0}{3}{3/3}{}{0}}}
\@writefile{nav}{\headcommand {\beamer@framepages {3}{3}}}
\newlabel{modoo1_3<1>}{{4}{4}{}{Doc-Start}{}}
\@writefile{snm}{\beamer@slide {modoo1_3<1>}{4}}
\newlabel{modoo1_3}{{4}{4}{}{Doc-Start}{}}
\@writefile{snm}{\beamer@slide {modoo1_3}{4}}
\newlabel{fig:simple}{{4}{4}{}{Doc-Start}{}}
\@writefile{snm}{\beamer@slide {fig:simple}{4}}
\@writefile{nav}{\headcommand {\slideentry {0}{0}{4}{4/4}{}{0}}}
\@writefile{nav}{\headcommand {\beamer@framepages {4}{4}}}
\newlabel{modoo1_4<1>}{{5}{5}{}{Doc-Start}{}}
\@writefile{snm}{\beamer@slide {modoo1_4<1>}{5}}
\newlabel{modoo1_4}{{5}{5}{}{Doc-Start}{}}
\@writefile{snm}{\beamer@slide {modoo1_4}{5}}
\newlabel{fig:simple}{{5}{5}{}{Doc-Start}{}}
\@writefile{snm}{\beamer@slide {fig:simple}{5}}
\@writefile{nav}{\headcommand {\slideentry {0}{0}{5}{5/5}{}{0}}}
\@writefile{nav}{\headcommand {\beamer@framepages {5}{5}}}
\newlabel{modoo1_5<1>}{{6}{6}{}{Doc-Start}{}}
\@writefile{snm}{\beamer@slide {modoo1_5<1>}{6}}
\newlabel{modoo1_5}{{6}{6}{}{Doc-Start}{}}
\@writefile{snm}{\beamer@slide {modoo1_5}{6}}
\newlabel{fig:simple}{{6}{6}{}{Doc-Start}{}}
\@writefile{snm}{\beamer@slide {fig:simple}{6}}
\@writefile{nav}{\headcommand {\slideentry {0}{0}{6}{6/6}{}{0}}}
\@writefile{nav}{\headcommand {\beamer@framepages {6}{6}}}
\newlabel{modoo1_6<1>}{{7}{7}{}{Doc-Start}{}}
\@writefile{snm}{\beamer@slide {modoo1_6<1>}{7}}
\newlabel{modoo1_6}{{7}{7}{}{Doc-Start}{}}
\@writefile{snm}{\beamer@slide {modoo1_6}{7}}
\newlabel{fig:simple}{{7}{7}{}{Doc-Start}{}}
\@writefile{snm}{\beamer@slide {fig:simple}{7}}
\@writefile{nav}{\headcommand {\slideentry {0}{0}{7}{7/7}{}{0}}}
\@writefile{nav}{\headcommand {\beamer@framepages {7}{7}}}
\newlabel{modoo1_7<1>}{{8}{8}{}{Doc-Start}{}}
\@writefile{snm}{\beamer@slide {modoo1_7<1>}{8}}
\newlabel{modoo1_7}{{8}{8}{}{Doc-Start}{}}
\@writefile{snm}{\beamer@slide {modoo1_7}{8}}
\newlabel{fig:simple}{{8}{8}{}{Doc-Start}{}}
\@writefile{snm}{\beamer@slide {fig:simple}{8}}
\@writefile{nav}{\headcommand {\slideentry {0}{0}{8}{8/8}{}{0}}}
\@writefile{nav}{\headcommand {\beamer@framepages {8}{8}}}
\@writefile{nav}{\headcommand {\beamer@partpages {1}{8}}}
\@writefile{nav}{\headcommand {\beamer@subsectionpages {1}{8}}}
\@writefile{nav}{\headcommand {\beamer@sectionpages {1}{8}}}
\@writefile{nav}{\headcommand {\beamer@documentpages {8}}}
\@writefile{nav}{\headcommand {\gdef \inserttotalframenumber {8}}}
